[
  {
    "id": 2089163,
    "name": "Lydia Millen Cutwork and Embroidery Bandeau Dress",
    "description": "This dress from our all-new-in collection has a contemporary silhouette with a trendy appeal that you can easily dress up or down while still looking stylish and comfortable.",
    "material": null,
    "rating": null,
    "images": [
      "https://media.6media.me/media/catalog/product/cache/51d09e6ba6f1fb68e23a90a2eb71ff17/b/k/bkk19056_sage_xl.jpg",
      "https://media.6media.me/media/catalog/product/cache/51d09e6ba6f1fb68e23a90a2eb71ff17/b/k/bkk19056_sage_xl_1.jpg",
      "https://media.6media.me/media/catalog/product/cache/51d09e6ba6f1fb68e23a90a2eb71ff17/b/k/bkk19056_sage_xl_2.jpg",
      "https://media.6media.me/media/catalog/product/cache/51d09e6ba6f1fb68e23a90a2eb71ff17/b/k/bkk19056_sage_xl_3.jpg",
      "https://media.6media.me/media/catalog/product/cache/51d09e6ba6f1fb68e23a90a2eb71ff17/b/k/bkk19056_sage_xl_4.jpg",
      "https://media.6media.me/media/catalog/product/cache/51d09e6ba6f1fb68e23a90a2eb71ff17/b/k/bkk19056_sage_xl_5.jpg"
    ],
    "code": "BKK19056_SAGE",
    "brand_id": null,
    "brand_name": null,
    "category_id": null,
    "category_name": null,
    "gender_id": null,
    "gender_name": null,
    "shop_id": 193,
    "shop_name": "6thstreet",
    "link": "https://en-qa.6thstreet.com/buy-karen-millen-clothing-lydia-millen-cutwork-and-embroidery-bandeau-dress-bkk19056-sage.html",
    "status": "IN_STOCK",
    "colors": [
      "#0000FF"
    ],
    "sizes": [
      "6",
      "10",
      "12",
      "14",
      "16"
    ],
    "region": "QATAR",
    "currency": "QAR",
    "current_price": 3680,
    "old_price": 6133,
    "off_percent": 40,
    "update_date": "2024-06-16 11:45:02.154652"
  },
  {
    "id": 2089164,
    "name": "Twill Column Bridesmaids Dress",
    "description": "This refined Coast bridesmaid dress effortlessly combines elegance and versatility. Designed in a flattering column silhouette, the boned bodice and satin-like twill fabrication create a structured shape whilst the rear slit allows for ease of movement. Fully lined for comfort, the dress features distinctive off-the-shoulder bows and a low back with concealed rear zip. \n\nPair with coordinating high heels and a clutch for a refined wedding guest or bridesmaid look. For black tie events or races, add a cropped jacket and strappy sandals. With its neutral hue and smooth texture, this dress also layers well with cashmere coats or faux fur stoles in the winter months. Sophisticated and understated, this column dress can suit various occasions whilst the bow detailing adds a signature touch.\n",
    "material": "100% Polyester",
    "rating": null,
    "images": [
      "https://media.6media.me/media/catalog/product/cache/51d09e6ba6f1fb68e23a90a2eb71ff17/b/c/bcc06950_black_xl.jpg",
      "https://media.6media.me/media/catalog/product/cache/51d09e6ba6f1fb68e23a90a2eb71ff17/b/c/bcc06950_black_xl_1.jpg",
      "https://media.6media.me/media/catalog/product/cache/51d09e6ba6f1fb68e23a90a2eb71ff17/b/c/bcc06950_black_xl_2.jpg",
      "https://media.6media.me/media/catalog/product/cache/51d09e6ba6f1fb68e23a90a2eb71ff17/b/c/bcc06950_black_xl_3.jpg",
      "https://media.6media.me/media/catalog/product/cache/51d09e6ba6f1fb68e23a90a2eb71ff17/b/c/bcc06950_black_xl_4.jpg"
    ],
    "code": "BCC06950_BLACK",
    "brand_id": null,
    "brand_name": null,
    "category_id": null,
    "category_name": null,
    "gender_id": null,
    "gender_name": null,
    "shop_id": 193,
    "shop_name": "6thstreet",
    "link": "https://en-qa.6thstreet.com/buy-coast-clothing-twill-column-bridesmaids-dress-bcc06950-black.html",
    "status": "IN_STOCK",
    "colors": [],
    "sizes": [
      "8",
      "10",
      "12",
      "14",
      "16",
      "18"
    ],
    "region": "QATAR",
    "currency": "QAR",
    "current_price": 640,
    "old_price": 1067,
    "off_percent": 41,
    "update_date": "2024-06-16 09:46:37.528145"
  },
  {
    "id": 2058607,
    "name": "Striped 3/4 Sleeves Top",
    "description": "Tops showcase a sophisticated charm to the wearer. The unique silhouettes of this top make you look appealing and apt choices for every occasion. Upgrade your closet and style with this top to look the best of yourself.",
    "material": "Viscose 100%",
    "rating": null,
    "images": [
      "https://media.6media.me/media/catalog/product/cache/51d09e6ba6f1fb68e23a90a2eb71ff17/t/t/tt-1016190_multi-1.jpg",
      "https://media.6media.me/media/catalog/product/cache/51d09e6ba6f1fb68e23a90a2eb71ff17/t/t/tt-1016190_multi-2.jpg",
      "https://media.6media.me/media/catalog/product/cache/51d09e6ba6f1fb68e23a90a2eb71ff17/t/t/tt-1016190_multi-3.jpg",
      "https://media.6media.me/media/catalog/product/cache/51d09e6ba6f1fb68e23a90a2eb71ff17/t/t/tt-1016190_multi-4.jpg",
      "https://media.6media.me/media/catalog/product/cache/51d09e6ba6f1fb68e23a90a2eb71ff17/t/t/tt-1016190_multi-5.jpg",
      "https://media.6media.me/media/catalog/product/cache/51d09e6ba6f1fb68e23a90a2eb71ff17/t/t/tt-1016190_multi-6.jpg"
    ],
    "code": "1016190_Multi",
    "brand_id": null,
    "brand_name": null,
    "category_id": 12,
    "category_name": "tops",
    "gender_id": null,
    "gender_name": null,
    "shop_id": 193,
    "shop_name": "6thstreet",
    "link": "https://en-kw.6thstreet.com/buy-tom-tailor-clothing-striped-3-4-sleeves-top-1016190-multi.html",
    "status": "IN_STOCK",
    "colors": [],
    "sizes": [
      "36",
      "38",
      "40",
      "42",
      "44",
      "46"
    ],
    "region": "KUWAIT",
    "currency": "KWD",
    "current_price": 20,
    "old_price": 20,
    "off_percent": 0,
    "update_date": "2024-06-12 16:18:32.692787"
  }]
